M       Threshold      S/Tot Simul.        SigmaFactor     S/Tot Expected  

0.002     20            357/4000             2*10**-7       1.3*10**-9
0.005     20            556/4000               10**-6         4*10**-10
0.01                    623/4000             3*10**-6       1.5*10**-10
0.02                    645/4000               10**-5         5*10**-11
0.03                    654/4000             2*10**-5      2.58*10**-11
0.05      20            279/4000             2*10**-5       1.1*10**-11
0.07      20            125/4000             2*10**-5         5*10**-12
0.2       20            293/4000             4*10**-4      5.86*10**-13
0.5                     338/4000             4*10**-3      6.76*10**-14    120GeV: 347/4000  60GeV:253/4000
