1.00000e-2   3.2256e-3
2.04608e-2   6.56256e-4
2.65060e-2   3.48886e-4
4.80872e-2   7.34266e-5
5.84483e-2   4.07152e-5
6.38027e-2   2.90680e-5
6.69892e-2   2.45609e-5
6.99904e-2   2.07526e-5
7.13550e-2   1.77828e-5
7.23899e-2   1.52380e-5
7.20117e-2   1.30573e-5
7.05923e-2   1.15074e-5
6.78551e-2   1.01414e-5
6.42628e-2   8.44947e-6
5.88133e-2   7.55177e-6
5.51752e-2   7.44648e-6
4.95278e-2   7.55177e-6
4.33855e-2   8.10096e-6
4.05073e-2   8.44947e-6
3.70867e-2   9.06394e-6
2.90262e-2   1.10327e-5
2.48129e-2   1.25188e-5
2.03960e-2   1.48160e-5
1.00000e-2   3.07160e-5
